<svg width="12" height="8" viewBox="0 0 12 8" fill="none" xmlns="http://www.w3.org/2000/svg">
<path d="M2.12002 1.29L6.00002 5.17L9.88002 1.29C10.27 0.899998 10.9 0.899998 11.29 1.29C11.68 1.68 11.68 2.31 11.29 2.7L6.70002 7.29C6.31002 7.68 5.68002 7.68 5.29002 7.29L0.700021 2.7C0.310021 2.31 0.310021 1.68 0.700021 1.29C1.09002 0.909997 1.73002 0.899997 2.12002 1.29Z" fill="#454F5B"/>
</svg>
